[
  {
    "name": "TITLE",
    "label": "Title",
    "type": [
      "STRING"
    ],
    "compatibleTypes": [
      "STRING",
      "NUMBER",
      "DATETIME"
    ],
    "numberOfFallbacks": 1
  },
  {
    "name": "DESCRIPTION",
    "label": "Description",
    "type": [
      "STRING"
    ],
    "compatibleTypes": [
      "STRING",
      "NUMBER",
      "DATETIME"
    ]
  },
  {
    "name": "START_TIME",
    "label": "Start time",
    "type": [
      "DATETIME"
    ],
    "compatibleTypes": [
      "NUMBER",
      "DATETIME"
    ]
  },
  {
    "name": "END_TIME",
    "label": "End time",
    "type": [
      "DATETIME"
    ],
    "compatibleTypes": [
      "NUMBER",
      "DATETIME"
    ]
  },
  {
    "name": "SERVICE",
    "label": "Service",
    "type": [
      "STRING"
    ],
    "compatibleTypes": [
      "STRING",
      "NUMBER",
      "DATETIME"
    ]
  },
  {
    "name": "MONITORING_TOOL",
    "label": "Monitoring tool",
    "type": [
      "STRING"
    ],
    "compatibleTypes": [
      "STRING",
      "NUMBER",
      "DATETIME"
    ]
  },
  {
    "name": "HOSTS",
    "label": "Hosts",
    "type": [
      "STRING",
      "ARRAY"
    ],
    "compatibleTypes": [
      "STRING",
      "ARRAY",
      "NUMBER",
      "DATETIME"
    ]
  },
  {
    "name": "SEVERITY",
    "label": "Severity",
    "type": [
      "STRING"
    ],
    "compatibleTypes": [
      "STRING",
      "NUMBER",
      "DATETIME"
    ]
  },
  {
    "name": "FINGERPRINT",
    "label": "Fingerprint",
    "type": [
      "STRING"
    ],
    "compatibleTypes": [
      "STRING",
      "NUMBER",
      "DATETIME"
    ]
  },
  {
    "name": "GITLAB_ENVIRONMENT_NAME",
    "label": "Environment",
    "type": [
      "STRING"
    ],
    "compatibleTypes": [
      "STRING",
      "NUMBER",
      "DATETIME"
    ]
  }
]
